{
    "content": [
        {
            "id": 18278,
            "name": "Strawberry Cakes 06",
            "price": {
                "currency": {
                    "id": 431,
                    "code": "INR"
                },
                "value": 699.0
            },
            "description": "Special Strawberry Cake",
            "isActive": true,
            "active": true,
            "recordActions": {
                "read": true,
                "update": true
            }
        },
        {
            "id": 18277,
            "name": "Strawberry Cakes 05 - 500gm",
            "price": {
                "currency": {
                    "id": 431,
                    "code": "INR"
                },
                "value": 899.0
            },
            "description": "Special Strawberry Cake",
            "isActive": true,
            "active": true,
            "recordActions": {
                "read": true,
                "update": true
            }
        },
        {
            "id": 18276,
            "name": "Strawberry Cakes 05 - 2 kg",
            "price": {
                "currency": {
                    "id": 431,
                    "code": "INR"
                },
                "value": 2749.0
            },
            "description": "Special Strawberry Cake",
            "isActive": true,
            "active": true,
            "recordActions": {
                "read": true,
                "update": true
            }
        },
        {
            "id": 18275,
            "name": "Strawberry Cakes 05 - 1kg",
            "price": {
                "currency": {
                    "id": 431,
                    "code": "INR"
                },
                "value": 1499.0
            },
            "description": "Special Strawberry Cake",
            "isActive": true,
            "active": true,
            "recordActions": {
                "read": true,
                "update": true
            }
        },
        {
            "id": 18274,
            "name": "Strawberry Cakes 05",
            "price": {
                "currency": {
                    "id": 431,
                    "code": "INR"
                },
                "value": 699.0
            },
            "description": "Special Strawberry Cake",
            "isActive": true,
            "active": true,
            "recordActions": {
                "read": true,
                "update": true
            }
        },
        {
            "id": 18273,
            "name": "Strawberry Cakes 04 - 500gm",
            "price": {
                "currency": {
                    "id": 431,
                    "code": "INR"
                },
                "value": 899.0
            },
            "description": "Special Strawberry Cake",
            "isActive": true,
            "active": true,
            "recordActions": {
                "read": true,
                "update": true
            }
        },
        {
            "id": 18272,
            "name": "Strawberry Cakes 04 - 2 kg",
            "price": {
                "currency": {
                    "id": 431,
                    "code": "INR"
                },
                "value": 2749.0
            },
            "description": "Special Strawberry Cake",
            "isActive": true,
            "active": true,
            "recordActions": {
                "read": true,
                "update": true
            }
        },
        {
            "id": 18271,
            "name": "Strawberry Cakes 04 - 1kg",
            "price": {
                "currency": {
                    "id": 431,
                    "code": "INR"
                },
                "value": 1499.0
            },
            "description": "Special Strawberry Cake",
            "isActive": true,
            "active": true,
            "recordActions": {
                "read": true,
                "update": true
            }
        },
        {
            "id": 18270,
            "name": "Strawberry Cakes 04",
            "price": {
                "currency": {
                    "id": 431,
                    "code": "INR"
                },
                "value": 699.0
            },
            "description": "Special Strawberry Cake",
            "isActive": true,
            "active": true,
            "recordActions": {
                "read": true,
                "update": true
            }
        },
        {
            "id": 18269,
            "name": "Strawberry Cakes 03 - 500gm",
            "price": {
                "currency": {
                    "id": 431,
                    "code": "INR"
                },
                "value": 899.0
            },
            "description": "Special Strawberry Cake",
            "isActive": true,
            "active": true,
            "recordActions": {
                "read": true,
                "update": true
            }
        },
        {
            "id": 18268,
            "name": "Strawberry Cakes 03 - 2 kg",
            "price": {
                "currency": {
                    "id": 431,
                    "code": "INR"
                },
                "value": 2749.0
            },
            "description": "Special Strawberry Cake",
            "isActive": true,
            "active": true,
            "recordActions": {
                "read": true,
                "update": true
            }
        },
        {
            "id": 18267,
            "name": "Strawberry Cakes 03 - 1kg",
            "price": {
                "currency": {
                    "id": 431,
                    "code": "INR"
                },
                "value": 1499.0
            },
            "description": "Special Strawberry Cake",
            "isActive": true,
            "active": true,
            "recordActions": {
                "read": true,
                "update": true
            }
        },
        {
            "id": 18266,
            "name": "Strawberry Cakes 03",
            "price": {
                "currency": {
                    "id": 431,
                    "code": "INR"
                },
                "value": 699.0
            },
            "description": "Special Strawberry Cake",
            "isActive": true,
            "active": true,
            "recordActions": {
                "read": true,
                "update": true
            }
        },
        {
            "id": 18265,
            "name": "Strawberry Cakes 02 - 500gm",
            "price": {
                "currency": {
                    "id": 431,
                    "code": "INR"
                },
                "value": 899.0
            },
            "description": "Special Strawberry Cake",
            "isActive": true,
            "active": true,
            "recordActions": {
                "read": true,
                "update": true
            }
        },
        {
            "id": 18264,
            "name": "Strawberry Cakes 02 - 2 kg",
            "price": {
                "currency": {
                    "id": 431,
                    "code": "INR"
                },
                "value": 2749.0
            },
            "description": "Special Strawberry Cake",
            "isActive": true,
            "active": true,
            "recordActions": {
                "read": true,
                "update": true
            }
        },
        {
            "id": 18263,
            "name": "Strawberry Cakes 02 - 1kg",
            "price": {
                "currency": {
                    "id": 431,
                    "code": "INR"
                },
                "value": 1499.0
            },
            "description": "Special Strawberry Cake",
            "isActive": true,
            "active": true,
            "recordActions": {
                "read": true,
                "update": true
            }
        },
        {
            "id": 18262,
            "name": "Strawberry Cakes 02",
            "price": {
                "currency": {
                    "id": 431,
                    "code": "INR"
                },
                "value": 699.0
            },
            "description": "Special Strawberry Cake",
            "isActive": true,
            "active": true,
            "recordActions": {
                "read": true,
                "update": true
            }
        },
        {
            "id": 18261,
            "name": "Strawberry Cakes 01 - 500gm",
            "price": {
                "currency": {
                    "id": 431,
                    "code": "INR"
                },
                "value": 899.0
            },
            "description": "Special Strawberry Cake",
            "isActive": true,
            "active": true,
            "recordActions": {
                "read": true,
                "update": true
            }
        },
        {
            "id": 18260,
            "name": "Strawberry Cakes 01 - 2 kg",
            "price": {
                "currency": {
                    "id": 431,
                    "code": "INR"
                },
                "value": 2749.0
            },
            "description": "Special Strawberry Cake",
            "isActive": true,
            "active": true,
            "recordActions": {
                "read": true,
                "update": true
            }
        },
        {
            "id": 18259,
            "name": "Strawberry Cakes 01 - 1kg",
            "price": {
                "currency": {
                    "id": 431,
                    "code": "INR"
                },
                "value": 1499.0
            },
            "description": "Special Strawberry Cake",
            "isActive": true,
            "active": true,
            "recordActions": {
                "read": true,
                "update": true
            }
        },
        {
            "id": 18258,
            "name": "Strawberry Cakes 01",
            "price": {
                "currency": {
                    "id": 431,
                    "code": "INR"
                },
                "value": 699.0
            },
            "description": "Special Strawberry Cake",
            "isActive": true,
            "active": true,
            "recordActions": {
                "read": true,
                "update": true
            }
        },
        {
            "id": 18257,
            "name": "Red Velvet Cakes 09 - 500gm",
            "price": {
                "currency": {
                    "id": 431,
                    "code": "INR"
                },
                "value": 899.0
            },
            "description": "Mystic Red velvet Cake",
            "isActive": true,
            "active": true,
            "recordActions": {
                "read": true,
                "update": true
            }
        },
        {
            "id": 18256,
            "name": "Red Velvet Cakes 09 - 2 kg",
            "price": {
                "currency": {
                    "id": 431,
                    "code": "INR"
                },
                "value": 2749.0
            },
            "description": "Mystic Red velvet Cake",
            "isActive": true,
            "active": true,
            "recordActions": {
                "read": true,
                "update": true
            }
        },
        {
            "id": 18255,
            "name": "Red Velvet Cakes 09 - 1kg",
            "price": {
                "currency": {
                    "id": 431,
                    "code": "INR"
                },
                "value": 1499.0
            },
            "description": "Mystic Red velvet Cake",
            "isActive": true,
            "active": true,
            "recordActions": {
                "read": true,
                "update": true
            }
        },
        {
            "id": 18254,
            "name": "Red Velvet Cakes 09",
            "price": {
                "currency": {
                    "id": 431,
                    "code": "INR"
                },
                "value": 699.0
            },
            "description": "Mystic Red velvet Cake",
            "isActive": true,
            "active": true,
            "recordActions": {
                "read": true,
                "update": true
            }
        },
        {
            "id": 18253,
            "name": "Red Velvet Cakes 08 - 500gm",
            "price": {
                "currency": {
                    "id": 431,
                    "code": "INR"
                },
                "value": 899.0
            },
            "description": "Mystic Red velvet Cake",
            "isActive": true,
            "active": true,
            "recordActions": {
                "read": true,
                "update": true
            }
        },
        {
            "id": 18252,
            "name": "Red Velvet Cakes 08 - 2 kg",
            "price": {
                "currency": {
                    "id": 431,
                    "code": "INR"
                },
                "value": 2749.0
            },
            "description": "Mystic Red velvet Cake",
            "isActive": true,
            "active": true,
            "recordActions": {
                "read": true,
                "update": true
            }
        },
        {
            "id": 18251,
            "name": "Red Velvet Cakes 08 - 1kg",
            "price": {
                "currency": {
                    "id": 431,
                    "code": "INR"
                },
                "value": 1499.0
            },
            "description": "Mystic Red velvet Cake",
            "isActive": true,
            "active": true,
            "recordActions": {
                "read": true,
                "update": true
            }
        },
        {
            "id": 18250,
            "name": "Red Velvet Cakes 08",
            "price": {
                "currency": {
                    "id": 431,
                    "code": "INR"
                },
                "value": 699.0
            },
            "description": "Mystic Red velvet Cake",
            "isActive": true,
            "active": true,
            "recordActions": {
                "read": true,
                "update": true
            }
        },
        {
            "id": 18249,
            "name": "Red Velvet Cakes 07 - 500gm",
            "price": {
                "currency": {
                    "id": 431,
                    "code": "INR"
                },
                "value": 899.0
            },
            "description": "Mystic Red velvet Cake",
            "isActive": true,
            "active": true,
            "recordActions": {
                "read": true,
                "update": true
            }
        }
    ],
    "pageable": {
        "sort": {
            "sorted": true,
            "unsorted": false,
            "empty": false
        },
        "offset": 90,
        "pageNumber": 3,
        "pageSize": 30,
        "unpaged": false,
        "paged": true
    },
    "totalElements": 13509,
    "last": false,
    "totalPages": 451,
    "size": 30,
    "number": 3,
    "sort": {
        "sorted": true,
        "unsorted": false,
        "empty": false
    },
    "numberOfElements": 30,
    "first": false,
    "empty": false
}